…
<!-- end list -->

``` r
dallas_and_g25 <- dat$City == "Dallas" & dat$Age > 25
dat[dallas_and_g25, ]
```

    ## # A tibble: 19,456 x 6
    ##    Number City   Sex      Age Income Illness
    ##     <int> <chr>  <chr>  <int>  <dbl> <chr>  
    ##  1      1 Dallas Male      41  40367 No     
    ##  2      2 Dallas Male      54  45084 No     
    ##  3      3 Dallas Male      42  52483 No     
    ##  4      4 Dallas Male      40  40941 No     
    ##  5      5 Dallas Male      46  50289 No     
    ##  6      6 Dallas Female    36  50786 No     
    ##  7      7 Dallas Female    32  33155 No     
    ##  8      8 Dallas Male      39  30914 No     
    ##  9      9 Dallas Male      51  68667 No     
    ## 10     10 Dallas Female    30  50082 No     
    ## # ... with 19,446 more rows
…
`select` is a function that lets us *select* specific columns by name.
This is much like what we have learned earlier with subsetting.

``` r
ages <- select(dat, Age)
```

Lets use our new `%>%` operator.

``` r
ages <- dat %>% select(Age)
ages
```

    ## # A tibble: 150,000 x 1
    ##      Age
    ##    <int>
    ##  1    41
    ##  2    54
    ##  3    42
    ##  4    40
    ##  5    46
    ##  6    36
    ##  7    32
    ##  8    39
    ##  9    51
    ## 10    30
    ## # ... with 149,990 more rows
…
## `filter`

As the name implies, `filter` will *filter* out the data you want from a
given input. This is similar to what we did earlier with `"Dallas"` and
`25` in the previous section.

``` r
dallas_and_g25_income <- dat %>% 
  filter(City == "Dallas" & Age > 25) %>%
  select(Income)
dallas_and_g25_income
```

    ## # A tibble: 19,456 x 1
    ##    Income
    ##     <dbl>
    ##  1  40367
    ##  2  45084
    ##  3  52483
    ##  4  40941
    ##  5  50289
    ##  6  50786
    ##  7  33155
    ##  8  30914
    ##  9  68667
    ## 10  50082
    ## # ... with 19,446 more rows
…
On our last example we got a dataframe of `Income`. However, these are
some big numbers\! Lets divide all of them by 1000.

``` r
dallas_and_g25_income <- dat %>% 
  filter(City == "Dallas" & Age > 25) %>%
  select(Income) %>%
  mutate(Income = Income / 1000)
dallas_and_g25_income
```

    ## # A tibble: 19,456 x 1
    ##    Income
    ##     <dbl>
    ##  1   40.4
    ##  2   45.1
    ##  3   52.5
    ##  4   40.9
    ##  5   50.3
    ##  6   50.8
    ##  7   33.2
    ##  8   30.9
    ##  9   68.7
    ## 10   50.1
    ## # ... with 19,446 more rows

Amazing\! Every element in the column has changed to its quotient.
However, we should be more explicit as to what we mean by `Income`. Lets
create new column with these quotients, rather than replacing the
originals.

``` r
dallas_and_g25_income <- dat %>% 
  filter(City == "Dallas" & Age > 25) %>%
  select(Income) %>%
  mutate(Income_thousands = Income/1000)
dallas_and_g25_income
```

    ## # A tibble: 19,456 x 2
    ##    Income Income_thousands
    ##     <dbl>            <dbl>
    ##  1  40367             40.4
    ##  2  45084             45.1
    ##  3  52483             52.5
    ##  4  40941             40.9
    ##  5  50289             50.3
    ##  6  50786             50.8
    ##  7  33155             33.2
    ##  8  30914             30.9
    ##  9  68667             68.7
    ## 10  50082             50.1
    ## # ... with 19,446 more rows
…
